<svg xmlns="http://www.w3.org/2000/svg" xmlns:xlink="http://www.w3.org/1999/xlink" version="1.1" viewBox="-100 -100 750 750" style="cursor:pointer">
    <path id="background" fill="#fc6d26" d="m491.306 296.065-24.298-74.779-48.154-148.208c-2.478-7.625-13.266-7.625-15.744 0l-48.156 148.208h-159.908l-48.157-148.208c-2.477-7.625-13.265-7.625-15.743 0l-48.155 148.208-24.297 74.779c-2.217 6.821.212 14.293 6.013 18.508l210.293 152.786 210.293-152.786c5.802-4.215 8.229-11.687 6.013-18.508" class="background"/>
    <g>
        <g>
            <g>
                <path id="yellow_left" fill="#fca326" d="m82.992 221.286-24.298 74.779c-2.216 6.821.211 14.293 6.013 18.508l210.293 152.785z" class="yellow_left"/>
                <animateTransform fill="freeze" attributeName="transform" begin="mask.mouseover" dur="0.2s" from="0 275 467.4" repeatCount="1" to="-10 275 467.4" type="rotate"/>
                <animateTransform fill="freeze" attributeName="transform" begin="mask.mouseout" dur="1s" from="-10 275 467.4" to="0 275 467.4" type="rotate"/>
            </g>
            <g>
                <path id="yellow_right" fill="#fca326" d="m467.008 221.286 24.298 74.779c2.216 6.821-.211 14.293-6.013 18.508l-210.293 152.785z" class="yellow_right"/>
                <animateTransform fill="freeze" attributeName="transform" begin="mask.mouseover" dur="0.2s" from="0 275 467.4" repeatCount="1" to="10 275 467.4" type="rotate"/>
                <animateTransform fill="freeze" attributeName="transform" begin="mask.mouseout" dur="1s" from="10 275 467.4" to="0 275 467.4" type="rotate"/>
            </g>
            <animateTransform fill="freeze" attributeName="transform" attributeType="XML" begin="mask.mouseover" dur="0.2s" from="0 0" repeatCount="1" to="-46 -20" type="translate"/>
            <animateTransform fill="freeze" attributeName="transform" attributeType="XML" begin="mask.mouseout" dur="1s" from="-46 -20" repeatCount="1" to="0 0" type="translate"/>
        </g>
        <g>
            <path id="middle_red" fill="#e24329" d="m275 467.359 79.955-246.073h-159.909z" class="middle_red"/>
            <path id="ear_left" fill="#e24329" d="m82.992 221.286h112.054l-48.156-148.207c-2.479-7.627-13.267-7.627-15.744 0z" class="ear_left move"/>
            <path id="ear_right" fill="#e24329" d="m467.008 221.286h-112.054l48.156-148.207c2.479-7.627 13.267-7.627 15.744 0z" class="ear_right"/>
            <animateTransform fill="freeze" attributeName="transform" attributeType="XML" begin="mask.mouseover" dur="0.2s" from="0 0" repeatCount="1" to="-46 -20" type="translate"/>
            <animateTransform fill="freeze" attributeName="transform" attributeType="XML" begin="mask.mouseout" dur="1s" from="-46 -20" repeatCount="1" to="0 0" type="translate"/>
        </g>
        <animateTransform fill="freeze" attributeName="transform" attributeType="XML" begin="mask.mouseover" dur="0.2s" from="1 1" repeatCount="1" to="1.2 1.2" type="scale"/>
        <animateTransform fill="freeze" attributeName="transform" attributeType="XML" begin="mask.mouseout" dur="1s" from="1.2 1.2" repeatCount="1" to="1 1" type="scale"/>
    </g>
    <a target="_parent">
        <rect id="mask" width="550" height="550" x="0" y="0" opacity="0"/>
    </a>
</svg>
