<svg xmlns="http://www.w3.org/2000/svg" xmlns:xlink="http://www.w3.org/1999/xlink" version="1.1" viewBox="-100 -100 750 750" style="cursor:pointer">
    <g id="gulp_Logo" class="glup_logo">
        <g>
            <path id="bottom" fill="#C7000F" d="m274.037 390.638c-23.436 0-41.544-3.52-50.252-5.618-5.955-1.435-10.737-2.919-14.37-4.445l11.614 19.843 4.543 61.997c0 6.951 22.08 12.585 49.316 12.585s49.315-5.634 49.315-12.585l3.598-62.672 10.989-19.226c-3.649 1.546-8.473 3.05-14.502 4.503-8.709 2.098-26.817 5.618-50.251 5.618z"/>
            <path id="cup" fill="#C7000F" d="m339.166 188.895c-17.2 2.403-40.028 3.726-64.278 3.726s-47.078-1.323-64.279-3.726c-8.52-1.189-15.261-2.593-20.035-4.169-1.139-.377-3.069-1.019-4.926-2.043l19.464 190.427c1.544 3.869 30.606 13.376 68.925 13.376 38.336 0 67.409-9.516 68.926-13.382l21.17-190.424c-1.858 1.026-3.791 1.669-4.931 2.046-4.774 1.576-11.514 2.98-20.036 4.169z" class="cup"/>
            <path id="text" fill="#fff" d="m195.827 282.235c.495-1.689 1.524-4.85 2.136-6.531 1.251-3.445 2.698-6.812 4.34-10.102 1.643-3.289 3.432-6.398 5.366-9.327 1.933-2.928 3.992-5.624 6.173-8.087 2.182-2.463 4.421-4.581 6.719-6.356 2.298-1.773 4.617-3.16 6.958-4.159 2.342-.998 4.661-1.499 6.959-1.499 2.646 0 5.206.724 7.679 2.171 2.472 1.446 4.783 3.789 6.936 7.027.494.724.807 1.456.937 2.196.132.741.196 1.439.196 2.093 0 1.55-.37 2.774-1.111 3.669-.742.896-1.622 1.343-2.639 1.343-.933 0-1.797-.491-2.597-1.472-.8-.982-1.694-2.386-2.683-4.212-.932-1.654-1.956-2.85-3.075-3.591-1.121-.74-2.334-1.111-3.643-1.111-2.036 0-4.21.844-6.522 2.532-2.313 1.687-4.603 3.918-6.871 6.691-2.269 2.774-4.443 5.943-6.522 9.509-2.08 3.565-3.92 7.216-5.52 10.953-1.6 3.74-2.871 7.426-3.816 11.06-.946 3.633-1.419 6.897-1.419 9.791 0 .965.067 1.957.197 2.971.131 1.017.377 1.938.742 2.766.362.827.857 1.506 1.482 2.039.626.535 1.418.801 2.378.801 1.076 0 2.297-.361 3.665-1.085 1.367-.721 2.785-1.67 4.253-2.84 1.469-1.172 2.945-2.498 4.429-3.981 1.484-1.48 2.865-2.978 4.144-4.495 1.279-1.514 2.414-2.971 3.402-4.365.989-1.396 1.731-2.61 2.226-3.644l4.057-12.144c.494-1.308 1.141-2.238 1.941-2.789s1.622-.827 2.466-.827c.406 0 .813.069 1.221.206.408.138.77.354 1.091.646.32.294.574.672.763 1.138.189.464.283 1.007.283 1.626 0 1.654-.145 3.203-.436 4.651-.29 1.449-.661 2.86-1.113 4.238-.45 1.377-.953 2.764-1.505 4.159s-1.091 2.851-1.613 4.368c-.117.172-.327.713-.634 1.625-.305.915-.674 2.061-1.111 3.438-.436 1.378-.91 2.919-1.419 4.625-.509 1.705-1.032 3.444-1.569 5.218-.539 1.775-1.055 3.515-1.549 5.22-.495 1.705-.94 3.247-1.331 4.625-.393 1.377-.72 2.53-.982 3.462-.262.93-.422 1.48-.48 1.654-.145.55-.379 1.162-.697 1.833-.32.671-.698 1.31-1.135 1.912-.436.602-.916 1.104-1.44 1.498-.523.396-1.061.595-1.614.595-.931 0-1.608-.311-2.028-.929-.422-.621-.632-1.758-.632-3.411v-.723c0-.242.013-.502.042-.775.028-.552.247-1.586.655-3.103.407-1.514.894-3.227 1.462-5.14.567-1.912 1.178-3.893 1.833-5.943.653-2.049 1.242-3.883 1.766-5.502-1.543 1.723-3.214 3.436-5.017 5.142-1.804 1.704-3.651 3.238-5.541 4.598-1.891 1.361-3.796 2.472-5.715 3.333s-3.766 1.293-5.54 1.293c-2.036 0-3.525.228-5.259-1.307-.941-.69-1.318-1.981-1.492-3.422-.051-.416-.217-2.241-.217-2.241l-.576-5.371-.927-9.321zm155.32 17.257c-.588.54-1.161 1.07-1.713 1.585-2.444 2.272-4.75 4.227-6.916 5.863s-4.283 2.904-6.348 3.798c-2.066.897-4.276 1.344-6.631 1.344-2.211 0-3.921-.483-5.127-1.447s-1.81-2.289-1.81-3.978v-.388c0-.12.014-.267.044-.44.115-1.032.568-2.222 1.353-3.565.785-1.344 1.729-2.738 2.834-4.185 1.106-1.447 2.283-2.912 3.534-4.393 1.251-1.48 2.407-2.884 3.469-4.212 1.061-1.324 1.941-2.538 2.638-3.642.7-1.102 1.049-1.997 1.049-2.686 0-.414-.146-.741-.436-.984-.292-.238-.772-.361-1.44-.361-1.164 0-2.364.302-3.598.904-1.238.602-2.461 1.414-3.667 2.43s-2.385 2.18-3.534 3.488c-1.147 1.309-2.224 2.67-3.228 4.081-1.003 1.414-1.918 2.835-2.748 4.265-.829 1.429-1.534 2.747-2.116 3.951-.175.38-.422.914-.743 1.602-.319.689-.668 1.466-1.046 2.326-.379.862-.779 1.749-1.2 2.66-.422.915-.807 1.776-1.156 2.585-.348.81-.661 1.531-.936 2.17-.278.636-.474 1.076-.591 1.318-.145.31-.385.894-.719 1.756-.334.861-.721 1.869-1.156 3.023-.436 1.153-.895 2.368-1.375 3.644-.478 1.273-.93 2.48-1.352 3.617-.422 1.135-.793 2.135-1.112 2.997-.32.859-.525 1.446-.612 1.756-.29.896-.633 1.738-1.024 2.533-.393.792-.843 1.489-1.353 2.093-.508.603-1.09 1.084-1.745 1.446-.655.363-1.389.542-2.202.542-1.048 0-1.912-.251-2.597-.749-.682-.499-1.025-1.457-1.025-2.867 0-.69.087-1.396.262-2.118.174-.724.393-1.44.655-2.145.261-.708.531-1.395.808-2.067.275-.673.53-1.318.762-1.938 1.571-3.445 3.171-6.898 4.799-10.361 1.628-3.461 3.191-6.888 4.69-10.282.312-.708.598-1.402.902-2.105-.091.089-.18.182-.269.269-1.892 1.828-3.774 3.437-5.65 4.832-1.877 1.395-3.738 2.506-5.583 3.334-1.848.825-3.644 1.239-5.39 1.239-1.192 0-2.188-.189-2.987-.568-.801-.38-1.439-.897-1.92-1.55-.48-.654-.823-1.429-1.026-2.325-.069-.306-.112-.626-.156-.945-.511.398-1.026.785-1.545 1.152-1.803 1.273-3.577 2.299-5.323 3.073-1.744.776-3.315 1.163-4.71 1.163-1.397 0-2.531-.465-3.405-1.395-.872-.929-1.307-2.515-1.307-4.753 0-1.586.233-3.429.697-5.529-.756 1.343-1.701 2.704-2.834 4.081-1.136 1.379-2.43 2.636-3.883 3.774-1.457 1.135-3.085 2.057-4.887 2.763-1.804.706-3.767 1.059-5.889 1.059-.961 0-1.883-.12-2.771-.361-.888-.242-1.665-.655-2.334-1.241-.669-.584-1.206-1.369-1.614-2.35-.407-.981-.611-2.214-.611-3.695 0-.034.059-.559.175-1.577.116-1.016.487-2.618 1.113-4.805.625-2.187 1.592-5.021 2.899-8.501 1.31-3.479 3.157-7.699 5.542-12.658.61-1.31 1.316-2.249 2.115-2.817.801-.569 1.665-.853 2.595-.853.408 0 .83.061 1.266.181.438.121.844.31 1.223.568.376.259.683.587.916.983.231.395.349.851.349 1.368 0 .345-.045.674-.132.981-.146.589-.459 1.353-.936 2.299-.481.949-1.041 2.034-1.682 3.257-.639 1.223-1.315 2.541-2.028 3.954-.713 1.411-1.374 2.875-1.985 4.392-.61 1.517-1.134 3.057-1.57 4.625s-.684 3.093-.741 4.573c0 .62.144 1.188.436 1.705.29.517.771.774 1.439.774 1.89 0 3.693-.621 5.41-1.859 1.715-1.241 3.3-2.783 4.755-4.625 1.455-1.843 2.77-3.825 3.948-5.944s2.16-4.055 2.944-5.812c.554-1.17 1.041-2.43 1.462-3.772.422-1.344.88-2.583 1.375-3.721s1.061-2.084 1.701-2.842c.639-.757 1.44-1.137 2.398-1.137 1.049 0 1.876.397 2.489 1.189.61.793.914 1.74.914 2.841 0 .62-.195 1.474-.588 2.559-.394 1.085-.888 2.326-1.484 3.721-.597 1.395-1.243 2.885-1.94 4.468-.698 1.587-1.347 3.196-1.94 4.833-.599 1.636-1.092 3.238-1.485 4.805s-.589 3.024-.589 4.366c0 1.24.64 1.861 1.919 1.861.902 0 2.021-.31 3.359-.931 1.339-.621 2.742-1.49 4.21-2.61.367-.279.736-.571 1.103-.877.41-1.691.89-3.255 1.45-4.676 1.017-2.689 2.05-5.357 3.098-8.009 1.046-2.653 2.006-5.082 2.88-7.287l13.217-33.329c.524-1.344 1.23-2.291 2.115-2.843.889-.55 1.783-.826 2.685-.826.9 0 1.721.293 2.463.878.743.587 1.114 1.534 1.114 2.843 0 .62-.124 1.275-.371 1.963-.247.689-.56 1.429-.939 2.222-.725 1.62-1.591 3.6-2.595 5.942-1.004 2.343-2.081 4.893-3.229 7.648-1.149 2.756-2.327 5.624-3.534 8.603-1.206 2.981-2.384 5.883-3.534 8.707-1.147 2.826-2.224 5.503-3.228 8.036-1.003 2.532-1.867 4.728-2.596 6.588-.319.792-.632 1.715-.936 2.765-.306 1.05-.458 1.99-.458 2.817 0 .515.087.928.262 1.238.174.311.508.467 1.003.467.61 0 1.373-.215 2.29-.647.915-.43 1.904-1 2.966-1.706 1.063-.705 2.167-1.515 3.315-2.428 1.15-.913 2.291-1.859 3.424-2.842 1.136-.983 2.219-1.964 3.251-2.946 1.032-.981 1.957-1.885 2.772-2.713.191-.198.419-.338.67-.443.491-1.467.94-2.904 1.335-4.309.233-.621.554-1.498.961-2.636.406-1.138.872-2.257 1.395-3.36.523-1.101 1.114-2.058 1.766-2.867.655-.809 1.361-1.215 2.117-1.215 1.164 0 2.008.268 2.531.801.523.536.785 1.318.785 2.352 0 .207-.029.534-.088.981-.059.449-.129.923-.217 1.423-.087.498-.182.972-.284 1.421-.103.447-.196.774-.283.981 1.074-1.172 2.238-2.334 3.489-3.487 1.251-1.155 2.544-2.199 3.883-3.127 1.339-.931 2.705-1.687 4.102-2.276 1.395-.583 2.792-.877 4.187-.877.959 0 1.913.138 2.857.414.945.275 1.79.68 2.53 1.214.743.535 1.347 1.206 1.811 2.016.465.809.697 1.747.697 2.815 0 1.414-.355 2.921-1.068 4.523-.712 1.601-1.606 3.212-2.682 4.829-1.077 1.621-2.241 3.196-3.49 4.729-1.251 1.533-2.421 2.927-3.512 4.185-1.091 1.259-2.008 2.325-2.75 3.203-.739.881-1.127 1.475-1.155 1.785 0 .413.132.749.393 1.008.262.258.698.387 1.308.387.494 0 1.223-.276 2.181-.827.96-.551 2.306-1.506 4.036-2.867 1.729-1.362 3.927-3.188 6.588-5.479 1.728-1.486 3.737-3.245 5.99-5.236z" class="text"/>
            <g>
                <path id="lid" fill="#C7000F" d="m274.819 163.543c-49.882 0-87.891 5.047-90.319 10.656-3.32 7.67 28.092 12.959 83.389 13.839 50.632.806 104.132-4.459 97.25-13.839-3.657-4.985-40.437-10.656-90.32-10.656zm36.064 13.771c0 1.38-4.806 2.501-10.735 2.501-5.928 0-10.733-1.121-10.733-2.501 0-1.382 4.805-2.502 10.733-2.502 5.929 0 10.735 1.12 10.735 2.502z" class="lid"/>
                <path id="straw" fill="#C7000F" d="m291.589 178.349c-.054.085-.081.171-.081.259 0 1.046 3.869 1.892 8.64 1.892 4.773 0 8.641-.846 8.641-1.892l11.286-45.76 44.882-47.386c.015-.015.029-.029.043-.045.95-1.074-.978-4.4-4.177-7.251-3.198-2.852-6.652-3.818-7.726-2.732-.008.009-.015.017-.023.025l-47.888 50.39z" class="straw"/>
                <animateTransform additive="replace" attributeName="transform" attributeType="XML" begin="maskGulp.mouseover" dur="3s" from="0 0" keyTimes="0; 0.3; 0.6; 1" repeatCount="indefinite" to="0 -20" type="translate" values=" 0; 5 -20; -5 -10; 0 0 "/>
                <animateTransform fill="freeze" attributeName="transform" attributeType="XML" begin="maskGulp.mouseout" dur="4s" to="0 0" type="translate"/>
            </g>
            <animateTransform fill="freeze" attributeName="transform" attributeType="XML" begin="maskGulp.mouseover" dur="0.2s" from="1 1" repeatCount="1" to="1.3 1.3" type="scale"/>
            <animateTransform fill="freeze" attributeName="transform" attributeType="XML" begin="maskGulp.mouseout" dur="0.8s" from="1.3 1.3" repeatCount="1" to="1 1" type="scale"/>
        </g>
        <animateTransform fill="freeze" attributeName="transform" attributeType="XML" begin="maskGulp.mouseover" dur="0.2s" from="0 0" repeatCount="1" to="-60 -80" type="translate"/>
        <animateTransform fill="freeze" attributeName="transform" attributeType="XML" begin="maskGulp.mouseout" dur="0.8s" from="-60 -80" repeatCount="1" to="0 0" type="translate"/>
    </g>
    <a target="_parent">
        <rect id="maskGulp" width="550" height="550" x="0" y="0" class="maskGulp" opacity="0"/>
    </a>
    <style type="text/css">
        :hover .text { animation-timing-function: ease-in-out; animation-duration: 4s; animation-iteration-count: infinite; animation-name: rotation; transition: .5s; animation-direction: normal; animation-fill-mode: forwards; } @keyframes rotation { 40% { transform: rotateY(90deg); opacity:0; } 80% { transform: translate(150px, 0); opacity:0; } 100% { transform: translate(0, 0); opacity:1; } }
    </style>
</svg>
