<svg xmlns="http://www.w3.org/2000/svg" xmlns:serif="http://www.serif.com/" xmlns:xlink="http://www.w3.org/1999/xlink" version="1.1" viewBox="-100 -100 750 750" xml:space="preserve" style="cursor:pointer">
    <g>
        <g>
            <g>
                <path fill="#31b8e6" fill-rule="nonzero" d="m499.582 275.046c0-29.755-37.262-57.954-94.392-75.441 13.184-58.228 7.324-104.555-18.494-119.386-5.951-3.479-12.909-5.127-20.508-5.127v20.416c4.211 0 7.599.824 10.437 2.381 12.451 7.141 17.853 34.332 13.642 69.306-1.007 8.606-2.655 17.67-4.67 26.917-17.944-4.395-37.537-7.782-58.136-9.979-12.36-16.938-25.178-32.319-38.087-45.778 29.847-27.74 57.862-42.938 76.905-42.938v-20.417c-25.177 0-58.136 17.945-91.462 49.073-33.326-30.945-66.285-48.707-91.463-48.707v20.417c18.952 0 47.059 15.106 76.906 42.664-12.818 13.458-25.635 28.748-37.812 45.686-20.691 2.197-40.284 5.584-58.228 10.07-2.106-9.155-3.663-18.036-4.761-26.55-4.303-34.974 1.007-62.165 13.367-69.398 2.746-1.648 6.317-2.381 10.528-2.381v-20.416c-7.69 0-14.648 1.648-20.691 5.127-25.727 14.832-31.495 61.066-18.219 119.112-56.947 17.578-94.026 45.685-94.026 75.349 0 29.755 37.262 57.954 94.392 75.44-13.184 58.229-7.324 104.555 18.494 119.387 5.951 3.479 12.909 5.127 20.6 5.127 25.177 0 58.137-17.945 91.462-49.073 33.326 30.945 66.285 48.707 91.463 48.707 7.69 0 14.648-1.648 20.691-5.127 25.727-14.832 31.495-61.067 18.219-119.112 56.764-17.487 93.843-45.686 93.843-75.349zm-119.203-61.067c-3.388 11.811-7.599 23.987-12.36 36.164-3.754-7.324-7.691-14.649-11.994-21.973-4.211-7.324-8.697-14.465-13.183-21.424 13 1.923 25.543 4.303 37.537 7.233zm-41.932 97.505c-7.141 12.36-14.466 24.079-22.065 34.974-13.641 1.19-27.466 1.831-41.382 1.831-13.825 0-27.649-.641-41.199-1.739-7.599-10.895-15.015-22.523-22.156-34.791-6.959-11.994-13.276-24.17-19.044-36.439 5.677-12.268 12.085-24.536 18.952-36.53 7.141-12.359 14.466-24.078 22.065-34.973 13.641-1.191 27.466-1.831 41.382-1.831 13.825 0 27.649.64 41.199 1.739 7.599 10.895 15.015 22.522 22.156 34.791 6.959 11.993 13.276 24.17 19.044 36.438-5.768 12.268-12.085 24.537-18.952 36.53zm29.572-11.902c4.944 12.269 9.155 24.537 12.634 36.439-11.993 2.93-24.628 5.402-37.72 7.324 4.486-7.05 8.972-14.282 13.184-21.698 4.211-7.325 8.148-14.74 11.902-22.065zm-92.836 97.689c-8.514-8.79-17.029-18.586-25.452-29.298 8.24.366 16.663.641 25.177.641 8.607 0 17.121-.183 25.452-.641-8.239 10.712-16.754 20.508-25.177 29.298zm-68.116-53.926c-13.001-1.922-25.544-4.303-37.537-7.233 3.387-11.81 7.599-23.987 12.359-36.163 3.754 7.324 7.691 14.648 11.994 21.972 4.303 7.325 8.698 14.466 13.184 21.424zm67.658-190.524c8.515 8.789 17.029 18.586 25.452 29.297-8.239-.366-16.662-.641-25.177-.641-8.606 0-17.121.184-25.452.641 8.24-10.711 16.754-20.508 25.177-29.297zm-67.75 53.925c-4.486 7.05-8.972 14.283-13.184 21.699-4.211 7.324-8.148 14.648-11.902 21.973-4.943-12.269-9.155-24.537-12.634-36.439 11.994-2.838 24.628-5.31 37.72-7.233zm-82.856 114.626c-32.41-13.825-53.376-31.952-53.376-46.326s20.966-32.593 53.376-46.327c7.873-3.387 16.48-6.408 25.36-9.247 5.219 17.945 12.085 36.622 20.6 55.757-8.423 19.043-15.198 37.629-20.325 55.482-9.064-2.838-17.67-5.951-25.635-9.339zm49.256 130.831c-12.451-7.141-17.853-34.333-13.642-69.306 1.007-8.607 2.655-17.67 4.67-26.917 17.944 4.394 37.537 7.782 58.136 9.979 12.36 16.938 25.178 32.319 38.087 45.777-29.847 27.741-57.862 42.939-76.905 42.939-4.12-.092-7.599-.916-10.346-2.472zm217.166-69.764c4.303 34.973-1.007 62.165-13.367 69.398-2.746 1.648-6.317 2.38-10.528 2.38-18.952 0-47.059-15.106-76.906-42.664 12.818-13.458 25.635-28.748 37.812-45.686 20.691-2.197 40.284-5.584 58.228-10.07 2.106 9.246 3.754 18.127 4.761 26.642zm35.249-61.067c-7.874 3.388-16.48 6.409-25.361 9.247-5.218-17.944-12.085-36.622-20.6-55.756 8.423-19.044 15.198-37.629 20.325-55.482 9.064 2.838 17.67 5.951 25.727 9.338 32.41 13.825 53.376 31.953 53.376 46.327-.091 14.374-21.057 32.593-53.467 46.326z"/>
                <circle cx="274.908" cy="275.046" r="41.84" fill="#31b8e6"/>
                <animateTransform fill="freeze" attributeName="transform" attributeType="XML" begin="maskReact.mouseover" dur="0.2s" from="1 1" repeatCount="1" to="1.1 1.1" type="scale"/>
                <animateTransform fill="freeze" attributeName="transform" attributeType="XML" begin="maskReact.mouseout" dur="0.2s" from="1.1 1.1" repeatCount="1" to="1 1" type="scale"/>
            </g>
            <animateTransform fill="freeze" attributeName="transform" attributeType="XML" begin="maskReact.mouseover" dur="0.2s" from="0 0" repeatCount="1" to="-60 -35" type="translate"/>
            <animateTransform fill="freeze" attributeName="transform" attributeType="XML" begin="maskReact.mouseout" dur="0.2s" from="-65 -35" repeatCount="1" to="0 0" type="translate"/>
        </g>
        <animateTransform attributeName="transform" begin="maskReact.mouseover" dur="4s" from="0 275 275" repeatCount="indefinite" to="360 275 275" type="rotate"/>
        <animateTransform fill="freeze" attributeName="transform" begin="maskReact.mouseout" dur="4s" from="60 275 275" to="0 275 275" type="rotate"/>
    </g>
    <a target="_parent">
        <rect id="maskReact" width="550" height="550" x="00" y="0" opacity="0"/>
    </a>
</svg>
